<svg xmlns="http://www.w3.org/2000/svg" width="15.999" height="17" viewBox="0 0 15.999 17">
  <g id="icon_point" transform="translate(-41 -299)">
    <path id="빼기_1" data-name="빼기 1" d="M14,16H2a2,2,0,0,1-2-2V2A2,2,0,0,1,2,0H14a2,2,0,0,1,2,2V14A2,2,0,0,1,14,16ZM3,2A1,1,0,0,0,2,3V13a1,1,0,0,0,1,1H13a1,1,0,0,0,1-1V3a1,1,0,0,0-1-1Z" transform="translate(41 300)" fill="#222"/>
    <text id="P" transform="translate(45 313)" fill="#222" font-size="12" font-family="NotoSansCJKkr-Black, Noto Sans CJK KR" font-weight="800"><tspan x="0" y="0">P</tspan></text>
  </g>
</svg>
