<svg xmlns="http://www.w3.org/2000/svg" width="8.645" height="14" viewBox="0 0 8.645 14">
  <path id="ic_expand_more_24px" d="M18.355,8.59,13,13.933,7.645,8.59,6,10.235l7,7,7-7Z" transform="translate(17.235 -6) rotate(90)" fill="#fff"/>
</svg>
