<svg xmlns="http://www.w3.org/2000/svg" width="12.54" height="12.54" viewBox="0 0 12.54 12.54">
  <path id="ic_person_24px" d="M10.27,10.27A3.135,3.135,0,1,0,7.135,7.135,3.134,3.134,0,0,0,10.27,10.27Zm0,1.568c-2.093,0-6.27,1.05-6.27,3.135V16.54H16.54V14.973C16.54,12.888,12.363,11.838,10.27,11.838Z" transform="translate(-4 -4)" fill="#999"/>
</svg>
