<svg xmlns="http://www.w3.org/2000/svg" width="244" height="45" viewBox="0 0 244 45">
  <g id="logo_white" transform="translate(-123 -192)">
    <g id="BHL" transform="translate(123 192)">
      <path id="패스_1" data-name="패스 1" d="M393.451,433.137h3.132a6.257,6.257,0,0,0,3.848-.887,2.811,2.811,0,0,0,1.091-2.285,2.96,2.96,0,0,0-.639-1.885,3.211,3.211,0,0,0-1.692-1.111,14.96,14.96,0,0,0-3.309-.225h-3.81v19.779h4.863q3.485,0,4.638-.924a3.113,3.113,0,0,0,1.153-2.573,2.972,2.972,0,0,0-1.128-2.5q-1.128-.874-4.663-.874h-3.482Zm-12.912,21.677V418.578h18q6.718,0,9.9,1.948a8.117,8.117,0,0,1,4.136,7.367q0,4.67-4.713,7.692a7.915,7.915,0,0,1,4.425,2.947,8.839,8.839,0,0,1,1.642,5.444,11.367,11.367,0,0,1-.752,4.221,8.658,8.658,0,0,1-2.106,3.171,10.236,10.236,0,0,1-2.707,1.8,15.75,15.75,0,0,1-3.522,1.261,31.293,31.293,0,0,1-5.954.387Z" transform="translate(-380.539 -418.578)" fill="#fff"/>
      <path id="패스_2" data-name="패스 2" d="M766.565,445.35h15.842v9.465H754.131V418.578h11.882v25.4h-4.832a.689.689,0,0,0-.69.688h0a.689.689,0,0,0,.69.688Z" transform="translate(-681.73 -418.578)" fill="#fff"/>
      <path id="패스_3" data-name="패스 3" d="M572.867,429.471h-4.832a.689.689,0,0,0-.69.688h0a.689.689,0,0,0,.69.688h5.384v-.007h10.628V418.578H596v36.236H584.047V442.155h4.832a.689.689,0,0,0,.69-.688h0a.689.689,0,0,0-.69-.688H572.867v14.035H560.935V418.578h11.932Z" transform="translate(-525.994 -418.578)" fill="#fff"/>
    </g>
    <text id="Hair_Mall" data-name="Hair Mall" transform="translate(235 227)" fill="#fff" font-size="30" font-family="NotoSansCJKkr-Bold, Noto Sans CJK KR" font-weight="700"><tspan x="0" y="0">Hair Mall</tspan></text>
  </g>
</svg>
