<svg width="72" height="72" viewBox="0 0 72 72" fill="none" xmlns="http://www.w3.org/2000/svg">
<rect width="72" height="72" rx="20" fill="#D7A9FC"/>
<path fill-rule="evenodd" clip-rule="evenodd" d="M48.6534 24.9397V36.3097H31.5124V28.1697C31.7834 28.1797 32.0524 28.1897 32.3234 28.1897C36.8334 28.1897 40.4934 26.7297 40.4934 24.9397H48.6534Z" fill="#FFC11C"/>
<path fill-rule="evenodd" clip-rule="evenodd" d="M32.3233 28.1897C32.0523 28.1897 31.7833 28.1797 31.5123 28.1697C27.3833 28.0097 24.1633 26.6207 24.1633 24.9397C24.1633 23.1397 27.8133 21.6897 32.3233 21.6897C36.8333 21.6897 40.4933 23.1397 40.4933 24.9397C40.4933 26.7297 36.8333 28.1897 32.3233 28.1897ZM32.3233 16.0007C23.3133 16.0007 16.0033 20.0007 16.0033 24.9397C16.0033 29.7197 22.8833 33.6397 31.5123 33.8707C31.7833 33.8797 32.0523 33.8797 32.3233 33.8797C41.3433 33.8797 48.6533 29.8707 48.6533 24.9397C48.6533 20.0007 41.3433 16.0007 32.3233 16.0007Z" fill="#FFDD4D"/>
<mask id="mask0" mask-type="alpha" maskUnits="userSpaceOnUse" x="16" y="24" width="40" height="22">
<path fill-rule="evenodd" clip-rule="evenodd" d="M16.0001 24.9387H56V45.2527H16.0001V24.9387Z" fill="white"/>
</mask>
<g mask="url(#mask0)">
<path fill-rule="evenodd" clip-rule="evenodd" d="M56.0001 39.5647V45.2527H32.3261C23.3101 45.2527 16.0001 41.2517 16.0001 36.3147V24.9387C16.0001 27.6567 18.2161 30.0907 21.7141 31.7307C22.2301 31.9727 22.7761 32.1977 23.3471 32.4037C24.1481 32.6927 24.9671 32.9357 25.7961 33.1317C26.3261 33.2597 26.8711 33.3727 27.4291 33.4667C28.2211 33.6037 29.0391 33.7087 29.8781 33.7777C30.4141 33.8207 30.9581 33.8517 31.5101 33.8657C31.7801 33.8727 32.0531 33.8767 32.3261 33.8777H50.2851C53.4381 33.8737 55.9971 36.4157 56.0001 39.5537V39.5647Z" fill="#FFCF36"/>
</g>
<mask id="mask1" mask-type="alpha" maskUnits="userSpaceOnUse" x="19" y="39" width="37" height="17">
<path fill-rule="evenodd" clip-rule="evenodd" d="M19.2661 39.5647H56V55.9997H19.2661V39.5647Z" fill="white"/>
</mask>
<g mask="url(#mask1)">
<path fill-rule="evenodd" clip-rule="evenodd" d="M56.0001 39.5647V49.3157C56.0001 52.4577 53.4411 55.9997 50.2851 55.9997H19.2661V45.2527H50.2851C53.4411 45.2527 56.0001 42.7077 56.0001 39.5667V39.5647Z" fill="#FFDD4D"/>
</g>
<path fill-rule="evenodd" clip-rule="evenodd" d="M17.2735 45.2532H19.2655V55.9992H17.2735C16.5705 55.9992 16.0005 55.4302 16.0005 54.7272V46.5262C16.0005 45.8232 16.5705 45.2532 17.2735 45.2532Z" fill="#5E9CF8"/>
<path fill-rule="evenodd" clip-rule="evenodd" d="M21.7139 45.2532H23.3469V46.8742C23.3469 47.3252 22.9819 47.6912 22.5299 47.6912C22.0799 47.6912 21.7139 47.3252 21.7139 46.8742V45.2532Z" fill="#5E9CF8"/>
<path fill-rule="evenodd" clip-rule="evenodd" d="M25.796 45.2532H27.429V46.8742C27.429 47.3252 27.064 47.6912 26.612 47.6912C26.161 47.6912 25.796 47.3252 25.796 46.8742V45.2532Z" fill="#5E9CF8"/>
<path fill-rule="evenodd" clip-rule="evenodd" d="M29.878 45.2532H31.51V50.1252C31.51 50.5752 31.145 50.9412 30.693 50.9412C30.243 50.9412 29.878 50.5752 29.878 50.1252V45.2532Z" fill="#5E9CF8"/>
<path fill-rule="evenodd" clip-rule="evenodd" d="M33.9591 45.2532H35.5921V46.8742C35.5921 47.3252 35.2271 47.6912 34.7751 47.6912C34.3241 47.6912 33.9591 47.3252 33.9591 46.8742V45.2532Z" fill="#5E9CF8"/>
<path fill-rule="evenodd" clip-rule="evenodd" d="M38.0411 45.2532H39.6741V46.8742C39.6741 47.3252 39.3081 47.6912 38.8571 47.6912C38.4061 47.6912 38.0411 47.3252 38.0411 46.8742V45.2532Z" fill="#5E9CF8"/>
<path fill-rule="evenodd" clip-rule="evenodd" d="M42.1221 45.2532H43.7551V50.1252C43.7551 50.5752 43.3901 50.9412 42.9381 50.9412C42.4881 50.9412 42.1221 50.5752 42.1221 50.1252V45.2532Z" fill="#5E9CF8"/>
<path fill-rule="evenodd" clip-rule="evenodd" d="M46.2042 45.2532H47.8372V46.8742C47.8372 47.3252 47.4712 47.6912 47.0202 47.6912C46.5692 47.6912 46.2042 47.3252 46.2042 46.8742V45.2532Z" fill="#5E9CF8"/>
<path fill-rule="evenodd" clip-rule="evenodd" d="M51.918 45.0178V46.8738C51.918 47.3258 51.553 47.6908 51.102 47.6908C50.651 47.6908 50.285 47.3258 50.285 46.8738V45.2528C50.839 45.2538 51.389 45.1738 51.918 45.0178Z" fill="#5E9CF8"/>
<path fill-rule="evenodd" clip-rule="evenodd" d="M23.3468 32.4035V35.4985C23.3468 35.9495 22.9818 36.3145 22.5308 36.3145C22.0798 36.3145 21.7138 35.9495 21.7138 35.4985V31.7305C22.2308 31.9725 22.7768 32.1975 23.3468 32.4035Z" fill="#5E9CF8"/>
<path fill-rule="evenodd" clip-rule="evenodd" d="M27.4288 33.4671V35.4981C27.4288 35.9491 27.0638 36.3151 26.6128 36.3151C26.1608 36.3151 25.7958 35.9491 25.7958 35.4981V33.1321C26.3258 33.2601 26.8708 33.3721 27.4288 33.4671Z" fill="#5E9CF8"/>
<path fill-rule="evenodd" clip-rule="evenodd" d="M31.5098 33.8653V38.7483C31.5098 39.1993 31.1448 39.5643 30.6938 39.5643C30.2428 39.5643 29.8778 39.1993 29.8778 38.7483V33.7773C30.4138 33.8203 30.9578 33.8513 31.5098 33.8653Z" fill="#5E9CF8"/>
<path fill-rule="evenodd" clip-rule="evenodd" d="M33.9591 33.8772H35.5921V35.4982C35.5921 35.9492 35.2271 36.3152 34.7751 36.3152C34.3241 36.3152 33.9591 35.9492 33.9591 35.4982V33.8772Z" fill="#5E9CF8"/>
<path fill-rule="evenodd" clip-rule="evenodd" d="M38.0411 33.8772H39.6741V35.4982C39.6741 35.9492 39.3081 36.3152 38.8571 36.3152C38.4061 36.3152 38.0411 35.9492 38.0411 35.4982V33.8772Z" fill="#5E9CF8"/>
<path fill-rule="evenodd" clip-rule="evenodd" d="M42.1221 33.8772H43.7551V38.7482C43.7551 39.1992 43.3901 39.5642 42.9381 39.5642C42.4881 39.5642 42.1221 39.1992 42.1221 38.7482V33.8772Z" fill="#5E9CF8"/>
<path fill-rule="evenodd" clip-rule="evenodd" d="M46.2042 33.8772H47.8372V35.4982C47.8372 35.9492 47.4712 36.3152 47.0202 36.3152C46.5692 36.3152 46.2042 35.9492 46.2042 35.4982V33.8772Z" fill="#5E9CF8"/>
<path fill-rule="evenodd" clip-rule="evenodd" d="M51.918 34.1125V35.4985C51.918 35.9495 51.553 36.3145 51.102 36.3145C50.651 36.3145 50.285 35.9495 50.285 35.4985V33.8775C50.839 33.8765 51.389 33.9555 51.918 34.1125Z" fill="#5E9CF8"/>
</svg>
