<svg width="72" height="72" viewBox="0 0 72 72" fill="none" xmlns="http://www.w3.org/2000/svg">
<rect width="72" height="72" rx="20" fill="#A4E4FF"/>
<path fill-rule="evenodd" clip-rule="evenodd" d="M44.87 33.702H51.073V19.26H44.87V33.702Z" fill="#2A86F4"/>
<path fill-rule="evenodd" clip-rule="evenodd" d="M48.7314 55.9997H23.2684C21.9674 55.9997 20.9124 54.9247 20.9124 53.5977V33.4777L35.8274 21.4517L51.0874 35.2187V53.5977C51.0874 54.9247 50.0324 55.9997 48.7314 55.9997Z" fill="#FFFBF0"/>
<mask id="mask0" mask-type="alpha" maskUnits="userSpaceOnUse" x="16" y="16" width="40" height="23">
<path fill-rule="evenodd" clip-rule="evenodd" d="M16 16.0005H56V38.1018H16V16.0005Z" fill="white"/>
</mask>
<g mask="url(#mask0)">
<path fill-rule="evenodd" clip-rule="evenodd" d="M53.1719 38.1012C52.4819 38.1012 51.7889 37.8452 51.2439 37.3272L35.9999 22.8262L20.7559 37.3272C19.6139 38.4132 17.8249 38.3492 16.7599 37.1852C15.6939 36.0212 15.7569 34.1972 16.8989 33.1102L34.0709 16.7752C35.1569 15.7422 36.8429 15.7422 37.9289 16.7752L55.1019 33.1102C56.2429 34.1972 56.3059 36.0212 55.2399 37.1852C54.6839 37.7932 53.9289 38.1012 53.1719 38.1012Z" fill="#5E9CF8"/>
</g>
<path fill-rule="evenodd" clip-rule="evenodd" d="M41.5 55.9997H30.5V43.6257C30.5 40.5877 32.962 38.1257 36 38.1257C39.037 38.1257 41.5 40.5877 41.5 43.6257V55.9997Z" fill="#5E9CF8"/>
<path fill-rule="evenodd" clip-rule="evenodd" d="M51.418 21.2429H44.524C43.999 21.2429 43.573 20.8169 43.573 20.2919V18.4969C43.573 17.9719 43.999 17.5459 44.524 17.5459H51.418C51.943 17.5459 52.369 17.9719 52.369 18.4969V20.2919C52.369 20.8169 51.943 21.2429 51.418 21.2429Z" fill="#5E9CF8"/>
</svg>
